80100000 .text
80106f00 .rodata
801078f0 .stab
801078f1 .stabstr
80108000 .data
8010a520 .bss
00000000 .debug_line
00000000 .debug_info
00000000 .debug_abbrev
00000000 .debug_aranges
00000000 .debug_loc
00000000 .debug_ranges
00000000 .debug_str
00000000 .comment
00000000 bio.c
00000000 console.c
8010a520 cons
8010a558 panicked
801003f0 consputc
80100580 printint
80106f70 digits.1601
00000000 exec.c
00000000 file.c
00000000 fs.c
80101100 bfree
80101170 balloc
80101280 iget
80101350 bmap
80101c40 namex
00000000 ide.c
80101ef0 idestart
8010a580 idelock
8010a560 havedisk1
8010a564 idequeue
00000000 ioapic.c
00000000 kalloc.c
00000000 kbd.c
8010a5b4 shift.1442
801072a0 shiftcode
801071a0 togglecode
80107180 charcode.1443
80108200 normalmap
80108100 shiftmap
80108000 ctlmap
00000000 lapic.c
00000000 log.c
801029a0 install_trans
80102a40 write_head
00000000 main.c
80102df0 mpmain
80102e30 mpenter
00000000 mp.c
80102f70 mpsearch1
00000000 picirq.c
00000000 pipe.c
00000000 proc.c
801035a0 allocproc
8010a000 first.1643
8010a5bc initproc
80107570 states.1669
00000000 sleeplock.c
00000000 spinlock.c
00000000 string.c
00000000 syscall.c
801075e0 syscalls
00000000 sysfile.c
801048a0 create
80104a40 argfd.constprop.0
00000000 sysproc.c
00000000 trap.c
00000000 uart.c
80105980 uartgetc
8010a5c0 uart
801059b0 uartputc.part.0
00000000 vm.c
80106580 walkpgdir
80106600 mappages
80106690 deallocuvm.part.0
8010a420 kmap
80100270 consoleread
801064cf vector242
80105f26 vector119
8010000c entry
80105e06 vector87
80105dfd vector86
80104630 safestrcpy
80104bf0 sys_close
8010653b vector251
80105e2a vector91
80105c20 vector33
8010610f vector162
80103cd0 yield
801126a0 log
80112660 kmem
80106373 vector213
80105ec3 vector108
80105a00 uartinit
80105c7a vector43
80102700 lapiceoi
80106133 vector165
80106223 vector185
801021e0 ioapicinit
80105f02 vector115
80100f50 fileread
80105f41 vector122
80105510 sys_sbrk
80112780 ioapicid
801060c7 vector156
801064f3 vector245
80112654 ioapic
80106253 vector189
80105b44 vector7
80105d1c vector61
80105bcf vector24
80105ede vector111
801062d7 vector200
80105d52 vector67
80105fef vector138
80105d91 vector74
80103ae0 sched
801044e0 memmove
80105cf8 vector57
80104830 syscall
8010637f vector214
80105e72 vector99
80103750 cpuid
80101a40 writei
80106013 vector141
80105490 sys_fork
8010b5e0 bcache
80106187 vector172
801064c3 vector241
801041f0 getcallerpcs
80105140 sys_mkdir
80106553 vector253
80105b20 vector3
80105b17 vector2
80101b70 namecmp
8010641b vector227
8010634f vector210
801047f0 argstr
801063f7 vector224
80105c68 vector41
80100660 cprintf
80100de0 filedup
80101eb0 namei
80105bb4 vector21
80100040 binit
801061c3 vector177
80105f1d vector118
80105d6d vector70
80105d64 vector69
80106493 vector237
80105d37 vector64
80105bea vector27
80105fa7 vector132
8010622f vector186
80104b10 sys_read
801063a3 vector217
801046a0 fetchint
80106c50 setupkvm
80104550 memcpy
80106bd0 freevm
80105b0e vector1
801061cf vector178
80105c4d vector38
801022d0 kfree
8010649f vector238
801036d0 mycpu
80101790 iput
80105fb3 vector133
80105d88 vector73
80106037 vector144
8010655f vector254
80101420 readsb
8010a004 nextpid
80105e84 vector101
8010635b vector211
80102ff0 mpinit
8010619f vector174
801064db vector243
80100d50 fileinit
801041d0 initlock
80105f77 vector128
80106e60 copyout
80105dd0 vector81
80103d20 sleep
80102720 microdelay
80105b72 vector13
80105cc2 vector51
80105b89 vector16
8010ff40 input
801064b7 vector240
80105cdd vector54
80105ba2 vector19
80105e33 vector92
801064e7 vector244
80101910 stati
80106007 vector140
801054c0 sys_kill
80105c8c vector45
80105dbe vector79
801032e0 pipeclose
80106433 vector229
801060df vector158
80104c40 sys_fstat
80100600 consolewrite
80105c56 vector39
80106157 vector168
80102bb0 end_op
80105c32 vector35
80105ef0 vector113
80102360 freerange
80105f5c vector125
80106aa0 allocuvm
80105661 trapret
8010a5b8 readcount
80106397 vector216
80105d2e vector63
80105be1 vector26
80106283 vector193
801025e0 lapicinit
801062a7 vector196
80106343 vector209
80105b29 vector4
8010616f vector170
8010a5d0 stack
80105fd7 vector136
80105b5d vector10
8010631f vector206
80101740 iunlock
80105560 sys_sleep
8010656b vector255
801061f3 vector181
80105d0a vector59
80105df4 vector85
80105deb vector84
8010620b vector183
80105640 sys_getreadcount
801060eb vector159
80106367 vector212
80104c90 sys_link
80105c9e vector47
80106427 vector228
80105c71 vector42
80105ef9 vector114
80106e20 uva2ka
801061ab vector175
8010602b vector143
80100d70 filealloc
80103ed0 wakeup
80105f8f vector130
801064ff vector246
80105b54 vector9
8010601f vector142
80105e7b vector100
801062e3 vector201
80106cf0 clearpteu
80103770 myproc
80105670 tvinit
80105d13 vector60
80105bc6 vector23
80101630 idup
80106487 vector236
801025c0 kbdintr
80104fe0 sys_open
8010644b vector231
80105d49 vector66
80105bfc vector29
80101940 readi
80105fcb vector135
801007f0 consoleintr
80103f30 kill
80105dac vector77
801014f0 ialloc
801061e7 vector180
801154c4 kpgdir
80106337 vector208
801027c0 cmostime
80105af0 uartintr
80105e69 vector98
80105e60 vector97
801061b7 vector176
8010628f vector194
80105c17 vector32
801154c8 end
801062cb vector199
80105f9b vector131
80106547 vector252
80100fe0 filewrite
80105b05 vector0
80104740 argint
801009f0 exec
80106043 vector145
80104b80 sys_write
801043e0 release
801046e0 fetchstr
80105eba vector107
80105c5f vector40
80103de0 wait
80105e8d vector102
80109000 entrypgdir
0010000c _start
80105cef vector56
80105d5b vector68
80105b3b vector6
8010a48c _binary_initcode_end
80100000 multiboot_header
80105f83 vector129
80103a30 scheduler
80101b90 dirlookup
801062b3 vector197
80100e30 fileclose
80102b40 begin_op
80106097 vector152
80106cd0 kvmalloc
8010643f vector230
80104560 strncmp
80105c44 vector37
80106313 vector205
80106103 vector161
80114c80 tickslock
80103380 pipewrite
801045d0 strncpy
80105d76 vector71
80106d20 copyuvm
8010ffe0 ftable
801060f7 vector160
80104790 argptr
8010638b vector215
801060d3 vector157
80104ab0 sys_dup
80105ee7 vector112
80100370 panic
80103660 forkret
801061ff vector182
80105b6b vector12
80104480 memcmp
801024f0 kbdgetc
80105ecc vector109
80105bab vector20
80103910 fork
80105cd4 vector53
80105b99 vector18
0000008a _binary_entryother_size
801127a0 cpus
80104140 releasesleep
80105e4e vector95
80104300 holding
801109e0 sb
80104330 acquire
8010640f vector226
80101ed0 nameiparent
80105cb0 vector49
80105c83 vector44
8011269c lapic
80105db5 vector78
80105649 alltraps
80106193 vector173
80105f14 vector117
80105dd9 vector82
801063df vector222
80105b4d vector8
80106073 vector149
801015b0 iupdate
80108000 data
80104430 memset
80106457 vector232
80102e50 main
80106830 switchkvm
80105eb1 vector106
801063c7 vector220
80105e21 vector90
8010611b vector163
8010646f vector234
80102d20 log_write
801040e0 acquiresleep
80104df0 sys_unlink
80105d25 vector62
80105bd8 vector25
801062bf vector198
80105f2f vector120
8010a48c _binary_entryother_start
801023b0 kinit1
80105cb9 vector50
80105b80 vector15
8010608b vector151
80105de2 vector83
80105e18 vector89
80105e0f vector88
80105740 trap
80105610 sys_uptime
801061db vector179
80105c29 vector34
80105c95 vector46
80105fbf vector134
801063eb vector223
80114cc0 idt
801063af vector218
801036b0 pinit
80106ba0 deallocuvm
80106403 vector225
801026e0 lapicid
8010623b vector187
80103890 growproc
80104180 holdingsleep
80112d20 ncpu
80105c05 vector30
801037a0 userinit
801000d0 bread
80105f6e vector127
80103480 piperead
801154c0 ticks
80106277 vector192
8010613f vector166
801009a0 consoleinit
80105da3 vector76
80105d9a vector75
80102040 ideintr
8010629b vector195
8010607f vector150
80105d01 vector58
80106517 vector248
80105f4a vector123
80105e57 vector96
80105c0e vector31
801062fb vector203
80105ffb vector139
801060a3 vector153
80106127 vector164
80103fc0 procdump
80105f38 vector121
80105ac0 uartputc
80105b32 vector5
8010614b vector167
801060bb vector155
80106523 vector249
801001e0 brelse
80104080 getreadcount
8010652f vector250
80105f53 vector124
80105ed5 vector110
80106307 vector204
80101660 ilock
801052e0 sys_exec
80105fe3 vector137
8010a460 _binary_initcode_start
8010468b swtch
8010650b vector247
80105bbd vector22
801062ef vector202
80106730 seginit
801018f0 iunlockput
80105d7f vector72
80105ce6 vector55
80105f65 vector126
80105d40 vector65
80105bf3 vector28
8010a516 _binary_entryother_end
80106163 vector169
801001a0 bwrite
80106463 vector233
80105710 idtinit
80103ba0 exit
801054b0 sys_wait
801054a0 sys_exit
80101df0 dirlink
0000002c _binary_initcode_size
8010605b vector147
801040a0 initsleeplock
80101fc0 ideinit
801069e0 loaduvm
80105e9f vector104
80105f0b vector116
80112d40 ptable
80102290 ioapicenable
80104290 popcli
8010a008 vectors
80105ccb vector52
80105b92 vector17
80106217 vector184
80104670 strlen
801053c0 sys_pipe
80101460 iinit
801031c0 picinit
8010632b vector207
80106960 inituvm
8010625f vector190
801064ab vector239
80105e45 vector94
80105e3c vector93
80102aa0 initlog
80106247 vector188
80105ca7 vector48
801020e0 iderw
801063bb vector219
80106067 vector148
801063d3 vector221
80102480 kalloc
80110980 devsw
80105500 sys_getpid
80105dc7 vector80
8010617b vector171
801060af vector154
80105c3b vector36
801031e0 pipealloc
8010647b vector235
80105ea8 vector105
80105230 sys_chdir
80110a00 icache
8010604f vector146
8010626b vector191
80105e96 vector103
801051a0 sys_mknod
80102730 lapicstartap
80106850 switchuvm
80104250 pushcli
80102420 kinit2
80105b64 vector11
80105b79 vector14
80100f00 filestat
